8.0	LUNGHEZZA	802
8.1	ROMA EST	801
12.6	Tivoli	803
24.0	Castel Madama	804
33.2	Vicovaro-Mandela	805
50.5	Carsoli Oricola	806
61.2	Tagliacozzo	807
75.1	Valle del Salto	808
84.9	Tornimparte	809
101.0	L'Aquila Ovest	810
106.7	L'Aquila Est	811
116.8	Assergi	812
136.6	San Gabriele Colledara	813
146.1	Teramo	814