14.0	Masone	230
29.9	Ovada	231
59.5	Alessandria Sud	233
89.6	Casale Monferrato Sud	234
94.1	Casale Monferrato Nord	235
116.8	Vercelli Est	239
145.1	Romagnano Sesia - Ghemme	240
153.4	Borgomanero	241
165.5	Arona	247
166.6	Lago Maggiore	248